Suite/Test/Step Name,Browser,Description,Tag,Start time,End time,Duration,Status
Sprint-05,,,,2019-06-20 11:54:32,2019-06-20 11:54:46,14.472s,INCOMPLETE
,,,,,,,
Test Cases/MyLab-Login,,This script is to navigate to the URL and then Signin the Application,,2019-06-20 11:54:32,2019-06-20 11:54:46,13.989s,FAILED
"openBrowser("""")",,,,2019-06-20 11:54:33,2019-06-20 11:54:46,13.026s,FAILED
