Suite/Test/Step Name,Browser,Description,Tag,Start time,End time,Duration,Status
Sprint-05,,,,2019-07-12 11:30:21,2019-07-12 11:30:32,10.859s,INCOMPLETE
,,,,,,,
Test Cases/MyLab-Login,,This script is to navigate to the URL and then Signin the Application,,2019-07-12 11:30:22,2019-07-12 11:30:32,10.338s,FAILED
"openBrowser("""")",,,,2019-07-12 11:30:23,2019-07-12 11:30:32,8.637s,FAILED
navigateToUrl(var_URL),,,,2019-07-12 11:30:32,2019-07-12 11:30:32,0.172s,FAILED
try,,,,2019-07-12 11:30:32,2019-07-12 11:30:32,0.370s,FAILED
"setText(findTestObject(""page_MyLabSignIn/input_Username_username""), var_Username)",,,,2019-07-12 11:30:32,2019-07-12 11:30:32,0.083s,FAILED
"setText(findTestObject(""page_MyLabSignIn/input_Password_password""), var_Password)",,,,2019-07-12 11:30:32,2019-07-12 11:30:32,0.091s,FAILED
try,,,,2019-07-12 11:30:32,2019-07-12 11:30:32,0.036s,FAILED
