Suite/Test/Step Name,Browser,Description,Tag,Start time,End time,Duration,Status
Sprint-10,Edge 17,,,2019-07-04 14:00:38,2019-07-04 14:01:43,1m - 5.656s,INCOMPLETE
,,,,,,,
Test Cases/MyLab-Login,Edge 17,This script is to navigate to the URL and then Signin the Application,,2019-07-04 14:00:38,2019-07-04 14:01:07,28.963s,PASSED
"openBrowser("""")",Edge 17,,,2019-07-04 14:00:39,2019-07-04 14:00:48,8.761s,PASSED
navigateToUrl(var_URL),Edge 17,,,2019-07-04 14:00:48,2019-07-04 14:00:51,2.866s,PASSED
try,Edge 17,,,2019-07-04 14:00:51,2019-07-04 14:00:54,3.210s,PASSED
"setText(findTestObject(""page_MyLabSignIn/input_Username_username""), var_Username)",Edge 17,,,2019-07-04 14:00:54,2019-07-04 14:01:06,12.153s,PASSED
"setText(findTestObject(""page_MyLabSignIn/input_Password_password""), var_Password)",Edge 17,,,2019-07-04 14:01:06,2019-07-04 14:01:07,0.515s,PASSED
try,Edge 17,,,2019-07-04 14:01:07,2019-07-04 14:01:07,0.378s,PASSED
,,,,,,,
Test Cases/MyLab-SearchCourse,Edge 17,This script is to Search the Course and then navigate to Course Home page,,2019-07-04 14:01:07,2019-07-04 14:01:31,23.191s,PASSED
waitForPageLoad(20),Edge 17,,,2019-07-04 14:01:09,2019-07-04 14:01:15,5.986s,PASSED
try,Edge 17,,,2019-07-04 14:01:15,2019-07-04 14:01:15,0.542s,PASSED
waitForPageLoad(20),Edge 17,,,2019-07-04 14:01:15,2019-07-04 14:01:15,0.151s,PASSED
"setText(findTestObject(""Object Repository/Page_Course Home/input_Inactive_searchText""), findTestData(""CourseName"").getValue(1, 1))",Edge 17,,,2019-07-04 14:01:15,2019-07-04 14:01:16,1.070s,PASSED
try,Edge 17,,,2019-07-04 14:01:16,2019-07-04 14:01:17,0.538s,PASSED
waitForPageLoad(20),Edge 17,,,2019-07-04 14:01:17,2019-07-04 14:01:17,0.090s,PASSED
try,Edge 17,,,2019-07-04 14:01:17,2019-07-04 14:01:18,0.962s,PASSED
waitForPageLoad(30),Edge 17,,,2019-07-04 14:01:18,2019-07-04 14:01:26,8.592s,PASSED
try,Edge 17,,,2019-07-04 14:01:26,2019-07-04 14:01:28,1.057s,PASSED
Thread.sleep(3000),Edge 17,,,2019-07-04 14:01:28,2019-07-04 14:01:31,3.014s,PASSED
,,,,,,,
Test Cases/MyLab-CourseHome,Edge 17,This script is to Click the menu options for the course from the Course Home Page,,2019-07-04 14:01:31,2019-07-04 14:01:40,9.682s,PASSED
waitForPageLoad(40),Edge 17,,,2019-07-04 14:01:31,2019-07-04 14:01:31,0.019s,PASSED
"click(findTestObject(""Object Repository/page_CourseContent/Page_Course Home/a_Course Home""))",Edge 17,,,2019-07-04 14:01:31,2019-07-04 14:01:31,0.198s,PASSED
"click(findTestObject(""Object Repository/page_CourseContent/Page_Course Home/a_Homework""))",Edge 17,,,2019-07-04 14:01:31,2019-07-04 14:01:32,0.402s,PASSED
"click(findTestObject(""Object Repository/page_CourseContent/Page_Homework/a_Quizzes  Tests""))",Edge 17,,,2019-07-04 14:01:32,2019-07-04 14:01:32,0.638s,PASSED
"click(findTestObject(""Object Repository/page_CourseContent/Page_Quizzes  Tests/a_Study Plan""))",Edge 17,,,2019-07-04 14:01:32,2019-07-04 14:01:33,0.590s,PASSED
"click(findTestObject(""Object Repository/page_CourseContent/Page_Study Plan/span_Gradebook""))",Edge 17,,,2019-07-04 14:01:33,2019-07-04 14:01:33,0.491s,PASSED
"click(findTestObject(""Object Repository/page_CourseContent/Page_Gradebook/a_eText""))",Edge 17,,,2019-07-04 14:01:33,2019-07-04 14:01:34,0.403s,PASSED
"click(findTestObject(""Object Repository/page_CourseContent/Page_eText/a_Chapter Contents""))",Edge 17,,,2019-07-04 14:01:34,2019-07-04 14:01:34,0.520s,PASSED
waitForPageLoad(20),Edge 17,,,2019-07-04 14:01:34,2019-07-04 14:01:34,0.021s,PASSED
try,Edge 17,,,2019-07-04 14:01:34,2019-07-04 14:01:35,0.229s,PASSED
try,Edge 17,,,2019-07-04 14:01:35,2019-07-04 14:01:36,0.941s,PASSED
try,Edge 17,,,2019-07-04 14:01:36,2019-07-04 14:01:36,0.172s,PASSED
waitForPageLoad(20),Edge 17,,,2019-07-04 14:01:36,2019-07-04 14:01:40,4.450s,PASSED
,,,,,,,
Test Cases/MyLab-LogOut,Edge 17,This script is to navigate to the Course Home Page and LogOut the Test Environment,,2019-07-04 14:01:40,2019-07-04 14:01:43,3.065s,PASSED
"click(findTestObject(""Object Repository/Page_Course Home/i_Hi Michael Goncalves_fa fa-angle-down hidden-xs icons""))",Edge 17,,,2019-07-04 14:01:41,2019-07-04 14:01:41,0.297s,PASSED
"click(findTestObject(""Object Repository/Page_Course Home/a_Sign out""))",Edge 17,,,2019-07-04 14:01:41,2019-07-04 14:01:41,0.180s,PASSED
closeBrowser(),Edge 17,,,2019-07-04 14:01:41,2019-07-04 14:01:43,1.814s,PASSED
