Suite/Test/Step Name,Browser,Description,Tag,Start time,End time,Duration,Status
Sprint-10,Firefox 67.0,,,2019-07-16 10:53:09,2019-07-16 10:55:08,1m - 58.212s,INCOMPLETE
,,,,,,,
Test Cases/MyLab-Login,Firefox 67.0,This script is to navigate to the URL and then Signin the Application,,2019-07-16 10:53:10,2019-07-16 10:53:45,34.817s,PASSED
"openBrowser("""")",Firefox 67.0,,,2019-07-16 10:53:11,2019-07-16 10:53:23,12.567s,PASSED
navigateToUrl(var_URL),Firefox 67.0,,,2019-07-16 10:53:23,2019-07-16 10:53:30,6.161s,PASSED
try,Firefox 67.0,,,2019-07-16 10:53:30,2019-07-16 10:53:31,0.995s,PASSED
"setText(findTestObject(""page_MyLabSignIn/input_Username_username""), var_Username)",Firefox 67.0,,,2019-07-16 10:53:31,2019-07-16 10:53:42,11.541s,PASSED
"setText(findTestObject(""page_MyLabSignIn/input_Password_password""), var_Password)",Firefox 67.0,,,2019-07-16 10:53:42,2019-07-16 10:53:43,0.420s,PASSED
try,Firefox 67.0,,,2019-07-16 10:53:43,2019-07-16 10:53:45,2.249s,PASSED
,,,,,,,
Test Cases/MyLab-SearchCourse,Firefox 67.0,This script is to Search the Course and then navigate to Course Home page,,2019-07-16 10:53:45,2019-07-16 10:54:41,55.722s,FAILED
waitForPageLoad(20),Firefox 67.0,,,2019-07-16 10:53:46,2019-07-16 10:53:55,9.371s,PASSED
try,Firefox 67.0,,,2019-07-16 10:53:55,2019-07-16 10:53:56,0.508s,PASSED
waitForPageLoad(20),Firefox 67.0,,,2019-07-16 10:53:56,2019-07-16 10:53:56,0.019s,PASSED
"setText(findTestObject(""Object Repository/Page_Course Home/input_Inactive_searchText""), findTestData(""CourseName"").getValue(1, 1))",Firefox 67.0,,,2019-07-16 10:53:56,2019-07-16 10:53:56,0.929s,PASSED
try,Firefox 67.0,,,2019-07-16 10:53:56,2019-07-16 10:54:00,3.710s,PASSED
waitForPageLoad(20),Firefox 67.0,,,2019-07-16 10:54:00,2019-07-16 10:54:01,0.781s,PASSED
try,Firefox 67.0,,,2019-07-16 10:54:01,2019-07-16 10:54:03,1.978s,PASSED
waitForPageLoad(30),Firefox 67.0,,,2019-07-16 10:54:03,2019-07-16 10:54:03,0.021s,PASSED
try,Firefox 67.0,,,2019-07-16 10:54:03,2019-07-16 10:54:37,34.503s,FAILED
Thread.sleep(3000),Firefox 67.0,,,2019-07-16 10:54:37,2019-07-16 10:54:40,3.021s,PASSED
,,,,,,,
Test Cases/MyLab-CourseHome,Firefox 67.0,This script is to Click the menu options for the course from the Course Home Page,,2019-07-16 10:54:41,2019-07-16 10:54:48,7.681s,PASSED
waitForPageLoad(40),Firefox 67.0,,,2019-07-16 10:54:41,2019-07-16 10:54:41,0.023s,PASSED
"click(findTestObject(""Object Repository/page_CourseContent/Page_Course Home/a_Course Home""), CONTINUE_ON_FAILURE)",Firefox 67.0,,,2019-07-16 10:54:41,2019-07-16 10:54:42,0.517s,PASSED
"click(findTestObject(""Object Repository/page_CourseContent/Page_Course Home/a_Homework""), CONTINUE_ON_FAILURE)",Firefox 67.0,,,2019-07-16 10:54:42,2019-07-16 10:54:42,0.404s,PASSED
"click(findTestObject(""Object Repository/page_CourseContent/Page_Homework/a_Quizzes  Tests""), CONTINUE_ON_FAILURE)",Firefox 67.0,,,2019-07-16 10:54:42,2019-07-16 10:54:42,0.374s,PASSED
"click(findTestObject(""Object Repository/page_CourseContent/Page_Quizzes  Tests/a_Study Plan""), CONTINUE_ON_FAILURE)",Firefox 67.0,,,2019-07-16 10:54:42,2019-07-16 10:54:43,0.305s,PASSED
"click(findTestObject(""Object Repository/page_CourseContent/Page_Study Plan/span_Gradebook""), CONTINUE_ON_FAILURE)",Firefox 67.0,,,2019-07-16 10:54:43,2019-07-16 10:54:43,0.310s,PASSED
"click(findTestObject(""Object Repository/page_CourseContent/Page_Gradebook/a_eText""), CONTINUE_ON_FAILURE)",Firefox 67.0,,,2019-07-16 10:54:43,2019-07-16 10:54:43,0.261s,PASSED
"click(findTestObject(""Object Repository/page_CourseContent/Page_eText/a_Chapter Contents""), CONTINUE_ON_FAILURE)",Firefox 67.0,,,2019-07-16 10:54:43,2019-07-16 10:54:44,0.386s,PASSED
waitForPageLoad(20),Firefox 67.0,,,2019-07-16 10:54:44,2019-07-16 10:54:44,0.056s,PASSED
try,Firefox 67.0,,,2019-07-16 10:54:44,2019-07-16 10:54:44,0.315s,PASSED
try,Firefox 67.0,,,2019-07-16 10:54:44,2019-07-16 10:54:44,0.370s,PASSED
try,Firefox 67.0,,,2019-07-16 10:54:44,2019-07-16 10:54:48,3.756s,PASSED
waitForPageLoad(20),Firefox 67.0,,,2019-07-16 10:54:48,2019-07-16 10:54:48,0.014s,PASSED
,,,,,,,
Test Cases/MyLab-LogOut,Firefox 67.0,This script is to navigate to the Course Home Page and LogOut the Test Environment,,2019-07-16 10:54:48,2019-07-16 10:55:08,19.402s,PASSED
"click(findTestObject(""Object Repository/Page_Course Home/i_Hi Michael Goncalves_fa fa-angle-down hidden-xs icons""))",Firefox 67.0,,,2019-07-16 10:54:49,2019-07-16 10:54:50,0.559s,PASSED
"click(findTestObject(""Object Repository/Page_Course Home/a_Sign out""))",Firefox 67.0,,,2019-07-16 10:54:50,2019-07-16 10:55:01,11.524s,PASSED
closeBrowser(),Firefox 67.0,,,2019-07-16 10:55:01,2019-07-16 10:55:08,6.459s,PASSED
