Suite/Test/Step Name,Browser,Description,Tag,Start time,End time,Duration,Status
Sprint-10,Firefox 67.0,,,2019-06-20 10:49:27,2019-06-20 10:52:06,2m - 39.529s,INCOMPLETE
,,,,,,,
Test Cases/MyLab-Login,Firefox 67.0,This script is to navigate to the URL and then Signin the Application,,2019-06-20 10:49:27,2019-06-20 10:50:10,43.150s,PASSED
"openBrowser("""")",Firefox 67.0,,,2019-06-20 10:49:28,2019-06-20 10:49:52,23.451s,PASSED
navigateToUrl(var_URL),Firefox 67.0,,,2019-06-20 10:49:52,2019-06-20 10:49:58,5.593s,PASSED
try,Firefox 67.0,,,2019-06-20 10:49:58,2019-06-20 10:49:59,1.321s,PASSED
"setText(findTestObject(""page_MyLabSignIn/input_Username_username""), var_Username)",Firefox 67.0,,,2019-06-20 10:49:59,2019-06-20 10:50:09,9.709s,PASSED
"setText(findTestObject(""page_MyLabSignIn/input_Password_password""), var_Password)",Firefox 67.0,,,2019-06-20 10:50:09,2019-06-20 10:50:10,1.272s,PASSED
try,Firefox 67.0,,,2019-06-20 10:50:10,2019-06-20 10:50:10,0.649s,PASSED
,,,,,,,
Test Cases/MyLab-SearchCourse,Firefox 67.0,This script is to Search the Course and then navigate to Course Home page,,2019-06-20 10:50:11,2019-06-20 10:51:04,53.171s,FAILED
waitForPageLoad(20),Firefox 67.0,,,2019-06-20 10:50:11,2019-06-20 10:50:24,12.924s,PASSED
try,Firefox 67.0,,,2019-06-20 10:50:24,2019-06-20 10:50:25,0.549s,PASSED
waitForPageLoad(20),Firefox 67.0,,,2019-06-20 10:50:25,2019-06-20 10:50:25,0.029s,PASSED
"setText(findTestObject(""Object Repository/Page_Course Home/input_Inactive_searchText""), findTestData(""CourseName"").getValue(1, 1))",Firefox 67.0,,,2019-06-20 10:50:25,2019-06-20 10:50:26,1.139s,PASSED
try,Firefox 67.0,,,2019-06-20 10:50:26,2019-06-20 10:50:26,0.463s,PASSED
waitForPageLoad(20),Firefox 67.0,,,2019-06-20 10:50:26,2019-06-20 10:50:26,0.063s,PASSED
try,Firefox 67.0,,,2019-06-20 10:50:26,2019-06-20 10:50:32,5.750s,PASSED
waitForPageLoad(30),Firefox 67.0,,,2019-06-20 10:50:32,2019-06-20 10:50:32,0.020s,PASSED
try,Firefox 67.0,,,2019-06-20 10:50:32,2019-06-20 10:51:04,31.368s,FAILED
,,,,,,,
Test Cases/MyLab-CourseHome,Firefox 67.0,This script is to Click the menu options for the course from the Course Home Page,,2019-06-20 10:51:04,2019-06-20 10:51:35,31.372s,FAILED
waitForPageLoad(40),Firefox 67.0,,,2019-06-20 10:51:04,2019-06-20 10:51:04,0.015s,PASSED
"click(findTestObject(""Object Repository/page_CourseContent/Page_Course Home/a_Course Home""))",Firefox 67.0,,,2019-06-20 10:51:04,2019-06-20 10:51:35,30.897s,FAILED
,,,,,,,
Test Cases/MyLab-LogOut,Firefox 67.0,This script is to navigate to the Course Home Page and LogOut the Test Environment,,2019-06-20 10:51:35,2019-06-20 10:52:06,31.200s,FAILED
"click(findTestObject(""Object Repository/Page_Course Home/i_Hi Michael Goncalves_fa fa-angle-down hidden-xs icons""))",Firefox 67.0,,,2019-06-20 10:51:36,2019-06-20 10:52:06,30.704s,FAILED
