Suite/Test/Step Name,Browser,Description,Tag,Start time,End time,Duration,Status
Sprint-10,Edge 17,,,2019-06-13 12:18:26,2019-06-13 12:19:06,39.722s,INCOMPLETE
,,,,,,,
Test Cases/MyLab-Login,Edge 17,,,2019-06-13 12:18:27,2019-06-13 12:18:46,18.834s,PASSED
"openBrowser("""")",Edge 17,,,2019-06-13 12:18:28,2019-06-13 12:18:35,7.814s,PASSED
navigateToUrl(var_URL),Edge 17,,,2019-06-13 12:18:35,2019-06-13 12:18:39,3.395s,PASSED
try,Edge 17,,,2019-06-13 12:18:39,2019-06-13 12:18:39,0.366s,PASSED
"setText(findTestObject(""page_MyLabSignIn/input_Username_username""), var_Username)",Edge 17,,,2019-06-13 12:18:39,2019-06-13 12:18:45,6.198s,PASSED
"setText(findTestObject(""page_MyLabSignIn/input_Password_password""), var_Password)",Edge 17,,,2019-06-13 12:18:45,2019-06-13 12:18:46,0.145s,PASSED
try,Edge 17,,,2019-06-13 12:18:46,2019-06-13 12:18:46,0.175s,PASSED
,,,,,,,
Test Cases/MyLab-SearchCourse,Edge 17,,,2019-06-13 12:18:46,2019-06-13 12:19:06,19.784s,PASSED
waitForPageLoad(20),Edge 17,,,2019-06-13 12:18:46,2019-06-13 12:18:51,4.969s,PASSED
try,Edge 17,,,2019-06-13 12:18:51,2019-06-13 12:18:52,0.192s,PASSED
waitForPageLoad(20),Edge 17,,,2019-06-13 12:18:52,2019-06-13 12:18:52,0.020s,PASSED
"setText(findTestObject(""Object Repository/Page_Course Home/input_Inactive_searchText""), findTestData(""CourseName"").getValue(1, 1))",Edge 17,,,2019-06-13 12:18:52,2019-06-13 12:18:52,0.677s,PASSED
try,Edge 17,,,2019-06-13 12:18:52,2019-06-13 12:18:53,0.305s,PASSED
waitForPageLoad(20),Edge 17,,,2019-06-13 12:18:53,2019-06-13 12:18:53,0.039s,PASSED
try,Edge 17,,,2019-06-13 12:18:53,2019-06-13 12:18:53,0.644s,PASSED
waitForPageLoad(30),Edge 17,,,2019-06-13 12:18:53,2019-06-13 12:19:02,8.578s,PASSED
try,Edge 17,,,2019-06-13 12:19:02,2019-06-13 12:19:03,0.620s,PASSED
Thread.sleep(3000),Edge 17,,,2019-06-13 12:19:03,2019-06-13 12:19:06,3.012s,PASSED
,,,,,,,
Test Cases/MyLab-CourseHome,Edge 17,,,2019-06-13 12:19:06,2019-06-13 12:19:06,0.633s,FAILED
waitForPageLoad(40),Edge 17,,,2019-06-13 12:19:06,2019-06-13 12:19:06,0.029s,PASSED
try,Edge 17,,,2019-06-13 12:19:06,2019-06-13 12:19:06,0.148s,FAILED
