Suite/Test/Step Name,Browser,Description,Tag,Start time,End time,Duration,Status
Sprint-10,Edge 17,,,2019-06-14 12:08:24,2019-06-14 12:09:17,53.581s,INCOMPLETE
,,,,,,,
Test Cases/MyLab-Login,Edge 17,This script is to navigate to the URL and then Signin the Application,,2019-06-14 12:08:24,2019-06-14 12:08:42,17.321s,PASSED
"openBrowser("""")",Edge 17,,,2019-06-14 12:08:25,2019-06-14 12:08:33,7.352s,PASSED
navigateToUrl(var_URL),Edge 17,,,2019-06-14 12:08:33,2019-06-14 12:08:35,2.758s,PASSED
try,Edge 17,,,2019-06-14 12:08:35,2019-06-14 12:08:36,0.577s,PASSED
"setText(findTestObject(""page_MyLabSignIn/input_Username_username""), var_Username)",Edge 17,,,2019-06-14 12:08:36,2019-06-14 12:08:41,5.242s,PASSED
"setText(findTestObject(""page_MyLabSignIn/input_Password_password""), var_Password)",Edge 17,,,2019-06-14 12:08:41,2019-06-14 12:08:41,0.196s,PASSED
try,Edge 17,,,2019-06-14 12:08:41,2019-06-14 12:08:42,0.245s,PASSED
,,,,,,,
Test Cases/MyLab-SearchCourse,Edge 17,This script is to Search the Course and then navigate to Course Home page,,2019-06-14 12:08:42,2019-06-14 12:09:08,26.750s,PASSED
waitForPageLoad(20),Edge 17,,,2019-06-14 12:08:42,2019-06-14 12:08:46,3.988s,PASSED
try,Edge 17,,,2019-06-14 12:08:46,2019-06-14 12:08:47,0.291s,PASSED
waitForPageLoad(20),Edge 17,,,2019-06-14 12:08:47,2019-06-14 12:08:47,0.083s,PASSED
"setText(findTestObject(""Object Repository/Page_Course Home/input_Inactive_searchText""), findTestData(""CourseName"").getValue(1, 1))",Edge 17,,,2019-06-14 12:08:47,2019-06-14 12:08:48,0.937s,PASSED
try,Edge 17,,,2019-06-14 12:08:48,2019-06-14 12:08:48,0.393s,PASSED
waitForPageLoad(20),Edge 17,,,2019-06-14 12:08:48,2019-06-14 12:08:48,0.057s,PASSED
try,Edge 17,,,2019-06-14 12:08:48,2019-06-14 12:08:49,0.761s,PASSED
waitForPageLoad(30),Edge 17,,,2019-06-14 12:08:49,2019-06-14 12:09:05,15.846s,PASSED
try,Edge 17,,,2019-06-14 12:09:05,2019-06-14 12:09:05,0.578s,PASSED
Thread.sleep(3000),Edge 17,,,2019-06-14 12:09:05,2019-06-14 12:09:08,3.010s,PASSED
,,,,,,,
Test Cases/MyLab-CourseHome,Edge 17,This script is to Click the menu options for the course from the Course Home Page,,2019-06-14 12:09:08,2019-06-14 12:09:15,6.564s,PASSED
waitForPageLoad(40),Edge 17,,,2019-06-14 12:09:09,2019-06-14 12:09:09,0.033s,PASSED
"click(findTestObject(""Object Repository/page_CourseContent/Page_Course Home/a_Course Home""))",Edge 17,,,2019-06-14 12:09:09,2019-06-14 12:09:09,0.154s,PASSED
"click(findTestObject(""Object Repository/page_CourseContent/Page_Course Home/a_Homework""))",Edge 17,,,2019-06-14 12:09:09,2019-06-14 12:09:09,0.351s,PASSED
"click(findTestObject(""Object Repository/page_CourseContent/Page_Homework/a_Quizzes  Tests""))",Edge 17,,,2019-06-14 12:09:09,2019-06-14 12:09:09,0.198s,PASSED
"click(findTestObject(""Object Repository/page_CourseContent/Page_Quizzes  Tests/a_Study Plan""))",Edge 17,,,2019-06-14 12:09:09,2019-06-14 12:09:10,0.240s,PASSED
"click(findTestObject(""Object Repository/page_CourseContent/Page_Study Plan/span_Gradebook""))",Edge 17,,,2019-06-14 12:09:10,2019-06-14 12:09:10,0.294s,PASSED
"click(findTestObject(""Object Repository/page_CourseContent/Page_Gradebook/a_eText""))",Edge 17,,,2019-06-14 12:09:10,2019-06-14 12:09:10,0.208s,PASSED
"click(findTestObject(""Object Repository/page_CourseContent/Page_eText/a_Chapter Contents""))",Edge 17,,,2019-06-14 12:09:10,2019-06-14 12:09:11,0.748s,PASSED
waitForPageLoad(20),Edge 17,,,2019-06-14 12:09:11,2019-06-14 12:09:11,0.070s,PASSED
try,Edge 17,,,2019-06-14 12:09:11,2019-06-14 12:09:11,0.386s,PASSED
try,Edge 17,,,2019-06-14 12:09:11,2019-06-14 12:09:12,0.556s,PASSED
try,Edge 17,,,2019-06-14 12:09:12,2019-06-14 12:09:12,0.297s,PASSED
waitForPageLoad(20),Edge 17,,,2019-06-14 12:09:12,2019-06-14 12:09:15,2.587s,PASSED
,,,,,,,
Test Cases/MyLab-LogOut,Edge 17,This script is to navigate to the Course Home Page and LogOut the Test Environment,,2019-06-14 12:09:15,2019-06-14 12:09:17,2.382s,PASSED
"click(findTestObject(""Object Repository/Page_Course Home/i_Hi Michael Goncalves_fa fa-angle-down hidden-xs icons""))",Edge 17,,,2019-06-14 12:09:16,2019-06-14 12:09:16,0.091s,PASSED
"click(findTestObject(""Object Repository/Page_Course Home/a_Sign out""))",Edge 17,,,2019-06-14 12:09:16,2019-06-14 12:09:16,0.139s,PASSED
closeBrowser(),Edge 17,,,2019-06-14 12:09:16,2019-06-14 12:09:17,1.491s,PASSED
