Suite/Test/Step Name,Browser,Description,Tag,Start time,End time,Duration,Status
Sprint-05,Firefox 68.0,,,2019-08-27 16:06:58,2019-08-27 16:07:30,32.415s,INCOMPLETE
,,,,,,,
Test Cases/MyLab-Login,Firefox 68.0,This script is to navigate to the URL and then Signin the Application,,2019-08-27 16:06:58,2019-08-27 16:07:30,31.876s,PASSED
"openBrowser("""")",Firefox 68.0,,,2019-08-27 16:06:59,2019-08-27 16:07:13,14.227s,PASSED
navigateToUrl(var_URL),Firefox 68.0,,,2019-08-27 16:07:13,2019-08-27 16:07:17,3.466s,PASSED
try,Firefox 68.0,,,2019-08-27 16:07:17,2019-08-27 16:07:29,11.586s,PASSED
"setText(findTestObject(""page_MyLabSignIn/input_Username_username""), var_Username)",Firefox 68.0,,,2019-08-27 16:07:29,2019-08-27 16:07:29,0.551s,PASSED
"setText(findTestObject(""page_MyLabSignIn/input_Password_password""), var_Password)",Firefox 68.0,,,2019-08-27 16:07:29,2019-08-27 16:07:29,0.377s,PASSED
try,Firefox 68.0,,,2019-08-27 16:07:29,2019-08-27 16:07:30,0.744s,PASSED
